PEW2CS01|S - DATOS CLIENTE - AGRUPADOS |X|60|01060|01|00001|IDCON01|ID DE CONTACTO 01   |A|004|0|S|        |
PEW2CS01|S - DATOS CLIENTE - AGRUPADOS |X|60|01060|02|00005|VLRCO01|VALOR CONTACTO 01   |A|080|0|S|        |
PEW2CS01|S - DATOS CLIENTE - AGRUPADOS |X|60|01060|03|00085|IDTIC01|ID TIPO CONTACTO 01 |A|010|0|S|        |
PEW2CS01|S - DATOS CLIENTE - AGRUPADOS |X|60|01060|04|00095|TIPCO01|TIPO CONTACTO 01    |A|010|0|S|        |
PEW2CS01|S - DATOS CLIENTE - AGRUPADOS |X|60|01060|05|00105|ESPRF01|ES PREFERENCIAL 01  |A|001|0|S|        |
PEW2CS01|S - DATOS CLIENTE - AGRUPADOS |X|60|01060|06|00106|ESMRC01|ES MARCA 01         |A|001|0|S|        |
PEW2CS01|S - DATOS CLIENTE - AGRUPADOS |X|60|01060|07|00107|IDCON02|ID DE CONTACTO 02   |A|004|0|S|        |
PEW2CS01|S - DATOS CLIENTE - AGRUPADOS |X|60|01060|08|00111|VLRCO02|VALOR CONTACTO 02   |A|080|0|S|        |
PEW2CS01|S - DATOS CLIENTE - AGRUPADOS |X|60|01060|09|00191|IDTIC02|ID TIPO CONTACTO 02 |A|010|0|S|        |
PEW2CS01|S - DATOS CLIENTE - AGRUPADOS |X|60|01060|10|00201|TIPCO02|TIPO CONTACTO 02    |A|010|0|S|        |
PEW2CS01|S - DATOS CLIENTE - AGRUPADOS |X|60|01060|11|00211|ESPRF02|ES PREFERENCIAL 02  |A|001|0|S|        |
PEW2CS01|S - DATOS CLIENTE - AGRUPADOS |X|60|01060|12|00212|ESMRC02|ES MARCA 02         |A|001|0|S|        |
PEW2CS01|S - DATOS CLIENTE - AGRUPADOS |X|60|01060|13|00213|IDCON03|ID DE CONTACTO 03   |A|004|0|S|        |
PEW2CS01|S - DATOS CLIENTE - AGRUPADOS |X|60|01060|14|00217|VLRCO03|VALOR CONTACTO 03   |A|080|0|S|        |
PEW2CS01|S - DATOS CLIENTE - AGRUPADOS |X|60|01060|15|00297|IDTIC03|ID TIPO CONTACTO 03 |A|010|0|S|        |
PEW2CS01|S - DATOS CLIENTE - AGRUPADOS |X|60|01060|16|00307|TIPCO03|TIPO DE CONTACTO 03 |A|010|0|S|        |
PEW2CS01|S - DATOS CLIENTE - AGRUPADOS |X|60|01060|17|00317|ESPRF03|ES PREFERENCIAL 03  |A|001|0|S|        |
PEW2CS01|S - DATOS CLIENTE - AGRUPADOS |X|60|01060|18|00318|ESMRC03|ES MARCA 03         |A|001|0|S|        |
PEW2CS01|S - DATOS CLIENTE - AGRUPADOS |X|60|01060|19|00319|IDCON04|ID DE CONTACTO 04   |A|004|0|S|        |
PEW2CS01|S - DATOS CLIENTE - AGRUPADOS |X|60|01060|20|00323|VLRCO04|VALOR CONTACTO 04   |A|080|0|S|        |
PEW2CS01|S - DATOS CLIENTE - AGRUPADOS |X|60|01060|21|00403|IDTIC04|ID TIPO CONTACTO 04 |A|010|0|S|        |
PEW2CS01|S - DATOS CLIENTE - AGRUPADOS |X|60|01060|22|00413|TIPCO04|TIPO CONTACTO 04    |A|010|0|S|        |
PEW2CS01|S - DATOS CLIENTE - AGRUPADOS |X|60|01060|23|00423|ESPRF04|ES PREFERENCIAL 04  |A|001|0|S|        |
PEW2CS01|S - DATOS CLIENTE - AGRUPADOS |X|60|01060|24|00424|ESMRC04|ES MARCA 04         |A|001|0|S|        |
PEW2CS01|S - DATOS CLIENTE - AGRUPADOS |X|60|01060|25|00425|IDCON05|ID DE CONTACTO 05   |A|004|0|S|        |
PEW2CS01|S - DATOS CLIENTE - AGRUPADOS |X|60|01060|26|00429|VLRCO05|VALOR CONTACTO 05   |A|080|0|S|        |
PEW2CS01|S - DATOS CLIENTE - AGRUPADOS |X|60|01060|27|00509|IDTIC05|ID TIPO CONTACTO 05 |A|010|0|S|        |
PEW2CS01|S - DATOS CLIENTE - AGRUPADOS |X|60|01060|28|00519|TIPCO05|TIPO CONTACTO 05    |A|010|0|S|        |
PEW2CS01|S - DATOS CLIENTE - AGRUPADOS |X|60|01060|29|00529|ESPRF05|ES PREFERENCIAL 05  |A|001|0|S|        |
PEW2CS01|S - DATOS CLIENTE - AGRUPADOS |X|60|01060|30|00530|ESMRC05|ES MARCA 05         |A|001|0|S|        |
PEW2CS01|S - DATOS CLIENTE - AGRUPADOS |X|60|01060|31|00531|IDCON06|ID DE CONTACTO 06   |A|004|0|S|        |
PEW2CS01|S - DATOS CLIENTE - AGRUPADOS |X|60|01060|32|00535|VLRCO06|VALOR CONTACTO 06   |A|080|0|S|        |
PEW2CS01|S - DATOS CLIENTE - AGRUPADOS |X|60|01060|33|00615|IDTIC06|ID TIPO CONTACTO 06 |A|010|0|S|        |
PEW2CS01|S - DATOS CLIENTE - AGRUPADOS |X|60|01060|34|00625|TIPCO06|TIPO CONTACTO 06    |A|010|0|S|        |
PEW2CS01|S - DATOS CLIENTE - AGRUPADOS |X|60|01060|35|00635|ESPRF06|ES PREFERENCIAL 06  |A|001|0|S|        |
PEW2CS01|S - DATOS CLIENTE - AGRUPADOS |X|60|01060|36|00636|ESMRC06|ES MARCA 06         |A|001|0|S|        |
PEW2CS01|S - DATOS CLIENTE - AGRUPADOS |X|60|01060|37|00637|IDCON07|ID DE CONTACTO 07   |A|004|0|S|        |
PEW2CS01|S - DATOS CLIENTE - AGRUPADOS |X|60|01060|38|00641|VLRCO07|VALOR CONTACTO 07   |A|080|0|S|        |
PEW2CS01|S - DATOS CLIENTE - AGRUPADOS |X|60|01060|39|00721|IDTIC07|ID TIPO CONTACTO 07 |A|010|0|S|        |
PEW2CS01|S - DATOS CLIENTE - AGRUPADOS |X|60|01060|40|00731|TIPCO07|TIPO CONTACTO 07    |A|010|0|S|        |
PEW2CS01|S - DATOS CLIENTE - AGRUPADOS |X|60|01060|41|00741|ESPRF07|ES PREFERENCIAL 07  |A|001|0|S|        |
PEW2CS01|S - DATOS CLIENTE - AGRUPADOS |X|60|01060|42|00742|ESMRC07|ES MARCA 07         |A|001|0|S|        |
PEW2CS01|S - DATOS CLIENTE - AGRUPADOS |X|60|01060|43|00743|IDCON08|ID DE CONTACTO 08   |A|004|0|S|        |
PEW2CS01|S - DATOS CLIENTE - AGRUPADOS |X|60|01060|44|00747|VLRCO08|VALOR CONTACTO 08   |A|080|0|S|        |
PEW2CS01|S - DATOS CLIENTE - AGRUPADOS |X|60|01060|45|00827|IDTIC08|ID TIPO CONTACTO 08 |A|010|0|S|        |
PEW2CS01|S - DATOS CLIENTE - AGRUPADOS |X|60|01060|46|00837|TIPCO08|TIPO CONTACTO 08    |A|010|0|S|        |
PEW2CS01|S - DATOS CLIENTE - AGRUPADOS |X|60|01060|47|00847|ESPRF08|ES PREFERENCIAL 08  |A|001|0|S|        |
PEW2CS01|S - DATOS CLIENTE - AGRUPADOS |X|60|01060|48|00848|ESMRC08|ES MARCA 08         |A|001|0|S|        |
PEW2CS01|S - DATOS CLIENTE - AGRUPADOS |X|60|01060|49|00849|IDCON09|ID DE CONTACTO 09   |A|004|0|S|        |
PEW2CS01|S - DATOS CLIENTE - AGRUPADOS |X|60|01060|50|00853|VLRCO09|VALOR CONTACTO 09   |A|080|0|S|        |
PEW2CS01|S - DATOS CLIENTE - AGRUPADOS |X|60|01060|51|00933|IDTIC09|ID TIPO CONTACTO 09 |A|010|0|S|        |
PEW2CS01|S - DATOS CLIENTE - AGRUPADOS |X|60|01060|52|00943|TIPCO09|TIPO CONTACTO 09    |A|010|0|S|        |
PEW2CS01|S - DATOS CLIENTE - AGRUPADOS |X|60|01060|53|00953|ESPRF09|ES PREFERENCIAL 09  |A|001|0|S|        |
PEW2CS01|S - DATOS CLIENTE - AGRUPADOS |X|60|01060|54|00954|ESMRC09|ES MARCA 09         |A|001|0|S|        |
PEW2CS01|S - DATOS CLIENTE - AGRUPADOS |X|60|01060|55|00955|IDCON10|ID DE CONTACTO 10   |A|004|0|S|        |
PEW2CS01|S - DATOS CLIENTE - AGRUPADOS |X|60|01060|56|00959|VLRCO10|VALOR CONTACTO 10   |A|080|0|S|        |
PEW2CS01|S - DATOS CLIENTE - AGRUPADOS |X|60|01060|57|01039|IDTIC10|ID TIPO CONTACTO 10 |A|010|0|S|        |
PEW2CS01|S - DATOS CLIENTE - AGRUPADOS |X|60|01060|58|01049|TIPCO10|TIPO CONTACTO 10    |A|010|0|S|        |
PEW2CS01|S - DATOS CLIENTE - AGRUPADOS |X|60|01060|59|01059|ESPRF10|ES PREFERENCIAL 10  |A|001|0|S|        |
PEW2CS01|S - DATOS CLIENTE - AGRUPADOS |X|60|01060|60|01060|ESMRC10|ES MARCA 10         |A|001|0|S|        |