PEW2PEW2CS02COPY    PE1CPEW21N                             CE15005 2016-07-29-15.06.28.776668CE15005 2016-07-29-15.06.28.776714
PEW2PEW2CS03COPY    PE1CPEW21N                             CE15005 2016-07-29-15.06.37.293150CE15005 2016-07-29-15.06.37.294241
PEW2PEW2CS04COPY    PE1CPEW21N                             CE15005 2016-07-29-15.06.42.233455CE15005 2016-07-29-15.06.42.233489
PEW2PEW2CS05COPY    PE1CPEW21N                             CE15005 2016-07-29-15.06.47.154308CE15005 2016-07-29-15.06.47.174082
PEW2PEW2CS00COPY    PE1CPEW21S                             CE15005 2016-07-15-16.52.08.049278CE15005 2016-07-15-16.52.08.049301
PEW2PEW2CS01COPY    PE1CPEW21S                             CE15005 2016-07-15-16.52.19.942986CE15005 2016-07-15-16.52.19.943011
